Store|Field Name|Field Value|Description
8799|IXA012|AB|Applebottom
8799|IXA012|ACLENS|Aclens
8799|IXA012|ACUVUE|Acuvue
8799|IXA012|ADJEC|Adjective
8799|IXA012|ADLER|Jonathan adler
8799|IXA012|AFFORD|Affordable designs
8799|IXA012|AGILIT|Agility
8799|IXA012|AIRLOC|Airlock
8799|IXA012|AIROPT|Air optix
8799|IXA012|AK|Anne klein
8799|IXA012|ALLURE|Allure
8799|IXA012|ANARCH|Anarchy
8799|IXA012|ANGEL|Angel
8799|IXA012|ANNTAY|Ann taylor
8799|IXA012|AOSFT|Ao soft
8799|IXA012|APEL|Apel
8799|IXA012|AQUFLX|Aquaflex
8799|IXA012|ARGYLE|Argyleculture
8799|IXA012|ARLING|Arlington eyewear
8799|IXA012|ARMANI|Armani
8799|IXA012|ARMEXC|Armani exchange
8799|IXA012|ARNETT|Arnette
8799|IXA012|ARROW|Arrow
8799|IXA012|ATTITU|Attitudes
8799|IXA012|AUSTRE|Austin reed
8799|IXA012|AVAIRA|Avaira
8799|IXA012|B&LBRD|B&l brand
8799|IXA012|BABIAT|Babiators
8799|IXA012|BABYPH|Baby phat
8799|IXA012|BADGMI|Badgley mischka
8799|IXA012|BANANA|Banana republic
8799|IXA012|BARBIE|Barbie
8799|IXA012|BB SUN|Bebe sun
8799|IXA012|BCBG|Bcbg
8799|IXA012|BDYGLV|Body glove
8799|IXA012|BEBE|Bebe
8799|IXA012|BENELL|Benelli
8799|IXA012|BENSHE|Ben sherman
8799|IXA012|BERTEL|Bertelli
8799|IXA012|BETSEY|Betsey johnson
8799|IXA012|BILLBL|Bill blass
8799|IXA012|BIOFIN|Biofinity
8799|IXA012|BIOMED|Biomedics
8799|IXA012|BLAKEN|Blakened
8799|IXA012|BLOOM|Bloom optics petite
8799|IXA012|BOLLE|Bolle
8799|IXA012|BONGO|Bongo
8799|IXA012|BOSS|Boss black
8799|IXA012|BOST|Boston
8799|IXA012|BREATH|Breathables
8799|IXA012|BRONX|Bronx
8799|IXA012|BROOKS|Brooks brothers
8799|IXA012|BURB|Burberry
8799|IXA012|CANDIE|Candies
8799|IXA012|CANTER|Cantera
8799|IXA012|CARLOS|Carlos
8799|IXA012|CARLOV|Carlo valletti
8799|IXA012|CAT|Caterpillar
8799|IXA012|CC|Carlos cap
8799|IXA012|CHAMP|Champion
8799|IXA012|CHIQUE|2 chique
8799|IXA012|CHIRST|Chirstie brinkley
8799|IXA012|CHOICE|Choice
8799|IXA012|CHRISD|Christian dior
8799|IXA012|CIBASF|Cibasoft
8799|IXA012|CIBTHN|Cibathin
8799|IXA012|CIO|Colors in optics
8799|IXA012|CK|Ck
8799|IXA012|CL|Cafe luna
8799|IXA012|CLRSGT|Clearsight
8799|IXA012|CLRVEW|Clearview
8799|IXA012|COACH|Coach
8799|IXA012|COLE|Cole haan
8799|IXA012|COLOUR|Colours collection
8799|IXA012|COLUM|Columbia
8799|IXA012|COMMOT|Commotion
8799|IXA012|CONFEC|Confections
8799|IXA012|CONFLT|Conflict
8799|IXA012|CONVER|Converse
8799|IXA012|COOPTH|Cooper thin
8799|IXA012|COOPTR|Cooper toric
8799|IXA012|COPPER
8799|IXA012|CORMCC|Corinne mccormack
8799|IXA012|COSMOP|Cosmopolitan
8799|IXA012|COVERG|Covergirl
8799|IXA012|CQ5|Cq5
8799|IXA012|CRAY|Crayola
8799|IXA012|CRAZY|Crazy eyes
8799|IXA012|CSC|Csc group
8799|IXA012|CSI|Csi
8799|IXA012|CT SUN|Ct suns
8799|IXA012|CUBAV|Cubavera
8799|IXA012|CUSTOM|Customlites
8799|IXA012|CV|Cv
8799|IXA012|CVRGRL|Covergirl colors
8799|IXA012|CXL|Cxl
8799|IXA012|D&G|D & g
8799|IXA012|DAISY|Daisy fuentes
8799|IXA012|DEA|Dea extended size
8799|IXA012|DEREON|Dereon
8799|IXA012|DERKLA|Derek lam
8799|IXA012|DICAPR|Dicaprio
8799|IXA012|DIESEL|Diesel
8799|IXA012|DISNEY|Disney
8799|IXA012|DKNY|Dkny
8799|IXA012|DL10C|Derek lam 10 crosby
8799|IXA012|DNA|Dna
8799|IXA012|DOCKER|Dockers
8799|IXA012|DRAGON|Dragon
8799|IXA012|DSQRED|Dsquared2
8799|IXA012|DURA2|Durasoft 2
8799|IXA012|DURA3|Durasoft 3
8799|IXA012|EAP|Eliz arden petites
8799|IXA012|EARTH|Earth wood sunglasses
8799|IXA012|EBONY|Ebony
8799|IXA012|ECHELN|Echelon
8799|IXA012|ECLPS|Eclipse
8799|IXA012|ECO|Eco
8799|IXA012|ELEMEN|Elements
8799|IXA012|ELGNCE|Elegance
8799|IXA012|ELLE|Elle
8799|IXA012|ELLEN|Ellen
8799|IXA012|EMPORI|Emporio armani
8799|IXA012|EN|Enhance
8799|IXA012|ENCORE|Encore
8799|IXA012|ENVI|Envi
8799|IXA012|EQ|Equinox
8799|IXA012|EQALNS|Equalens
8799|IXA012|ESPN|Espn
8799|IXA012|ESPRIT|Esprit
8799|IXA012|ESSENC|Essence
8799|IXA012|EXPRSN|Expressions
8799|IXA012|EYECRX|Eyecroxx
8799|IXA012|EYEFOL|Eyefolds
8799|IXA012|FAD|Fadz
8799|IXA012|FANFR|Fan frames
8799|IXA012|FANTAS|Fantas-eyes
8799|IXA012|FASHIO|Fashion flex
8799|IXA012|FENDI|Fendi
8799|IXA012|FERRAG|Salvatore ferraganno
8799|IXA012|FH|Fatheadz
8799|IXA012|FIELD|Field & stream
8799|IXA012|FISSIN|Fission
8799|IXA012|FLEXIT|Flex it
8799|IXA012|FLEXMX|Flex max
8799|IXA012|FLEXON|Flexon
8799|IXA012|FLEXTR|Flextra
8799|IXA012|FLRCON|Flourocon
8799|IXA012|FLREX|Flourex
8799|IXA012|FLRPRM|Flourperm
8799|IXA012|FLXLNS|Flexlens
8799|IXA012|FOCUS|Focus
8799|IXA012|FRENCH|French connection
8799|IXA012|FRQNCY|Frequency
8799|IXA012|FRSHLK|Freshlook
8799|IXA012|GANT|Gant
8799|IXA012|GARGOY|Gargoyles
8799|IXA012|GENERC|Generic
8799|IXA012|GENIUS|Genius flex
8799|IXA012|GENTL|Gentle touch
8799|IXA012|GEOFFB|Geoffrey beene
8799|IXA012|GIORGI|Giogio armani
8799|IXA012|GLITTR|Glitter eyes
8799|IXA012|GLORIA|Gloria
8799|IXA012|GOGRN|Go green
8799|IXA012|GOTH|Gotham
8799|IXA012|GUCCI|Gucci
8799|IXA012|GUESS|Guess
8799|IXA012|GXBYGS|Gx by gwen stefani
8799|IXA012|HAL|Halston
8799|IXA012|HALSTO|Halston
8799|IXA012|HANNAH|Hannah montana
8799|IXA012|HARLEY|Harley davidson
8799|IXA012|HARVE|Harve benard
8799|IXA012|HC|Hard candy
8799|IXA012|HCKTBE|Hackett london bespoke
8799|IXA012|HCKTXL|Hackett london large fit
8799|IXA012|HDRCRV|Hydrocurve
8799|IXA012|HDRSFT|Hydrasoft
8799|IXA012|HEADLI|Headliners
8799|IXA012|HEARLT|Heartland
8799|IXA012|HELIX|Helix
8799|IXA012|HELLOK|Hello kitty
8799|IXA012|HILARY|Hilary duff
8799|IXA012|HOLL|Hollywood
8799|IXA012|HOTKIS|Hot kiss
8799|IXA012|HSHTAG|Myhashtag
8799|IXA012|HYDRON|Hydron
8799|IXA012|IDENTI|Identity xl
8799|IXA012|IHEART|I Heart Eyewear
8799|IXA012|ILLUSN|Illusions
8799|IXA012|INDIE|Indie
8799|IXA012|INVINC|Invincilites
8799|IXA012|IRONMA|Ironman triathlon
8799|IXA012|IYF|In your face
8799|IXA012|JAMN|Jam'n sport goggle
8799|IXA012|JASNWU|Jason wu
8799|IXA012|JC|Joan collins
8799|IXA012|JENNY|Jenny mccarthy
8799|IXA012|JGHOOK|J.g. hook
8799|IXA012|JIMMY|Jimmy choo
8799|IXA012|JOHNDE|John deere
8799|IXA012|JOHNLE|John lennon
8799|IXA012|JOHNVA|John varvatos
8799|IXA012|JONES|Jones ny
8799|IXA012|JRAYMN|John raymond
8799|IXA012|JS|Jill stuart
8799|IXA012|JUB|Jubilee
8799|IXA012|JUDITH|Judith s. james
8799|IXA012|JUICY|Juicy coutoure
8799|IXA012|JUST|Just
8799|IXA012|JUSTC|Just cavalli
8799|IXA012|KARENM|Karen millen
8799|IXA012|KARL L|Karl lagerfeld
8799|IXA012|KATE|Kate spade
8799|IXA012|KATHY|Kathy van zeeland
8799|IXA012|KAY|Kay unger
8799|IXA012|KENCRE|Kenneth cole reaction
8799|IXA012|KENKYL|Kendall + kylie
8799|IXA012|KENNET|Kenneth cole new york
8799|IXA012|KENSGR|Kensie girl
8799|IXA012|KENSIE|Kensie
8799|IXA012|KIDCO|Kidco
8799|IXA012|KK|Kardashian kollection
8799|IXA012|KLIIK|Kliik
8799|IXA012|LA INK|La ink
8799|IXA012|LAGEAR|La gear
8799|IXA012|LAMB|L.a.m.b. by gwen stefani
8799|IXA012|LAUREN|Lauren hutton
8799|IXA012|LEGACY|Legacy lane
8799|IXA012|LEI|Lei
8799|IXA012|LENNON|Lennon
8799|IXA012|LEONMA|Leon max
8799|IXA012|LEVI|Levi strauss
8799|IXA012|LIFSTL|Life style
8799|IXA012|LILPUL|Lilly pulitzer
8799|IXA012|LIPSTK|Lipstick
8799|IXA012|LITE|Lite design
8799|IXA012|LITTLE|Little league
8799|IXA012|LIZ|Liz claiborne
8799|IXA012|LLB|Little league baseball
8799|IXA012|LM|Leadermax
8799|IXA012|LUCKY|Lucky
8799|IXA012|LULUG|Lulu guinness
8799|IXA012|LUNETO|Lunettos
8799|IXA012|MAGIC|Magic clip
8799|IXA012|MAGNET|Magnetix/magic clips
8799|IXA012|MARC|Marc ecko
8799|IXA012|MARCJ|Marc jacobs
8799|IXA012|MARIE|Marie claire
8799|IXA012|MARYLA|Maryland
8799|IXA012|MAXSTU|Max studio
8799|IXA012|MAXXEY|Maxx eyewear
8799|IXA012|MBRONX|Mini bronx
8799|IXA012|MCOMM|Mini commotion
8799|IXA012|MCQ|Mcq by alexander mcqueen
8799|IXA012|MEDAL|Gold medalist
8799|IXA012|MEMET|Memory metal
8799|IXA012|MEN'S|Men's collection
8799|IXA012|METALL|Metallurgy
8799|IXA012|MICHAE|Michael kors
8799|IXA012|MIMIC|Mimic
8799|IXA012|MIRAFL|Miraflex
8799|IXA012|MLP|My Little Pony
8799|IXA012|MMONRO|Marilyn monroe
8799|IXA012|MOD|Modern
8799|IXA012|MODA|Moda
8799|IXA012|MONTAF|Montana flex
8799|IXA012|MONTAN|Montana
8799|IXA012|MSPADA|Mini spada
8799|IXA012|MTM|Momentum
8799|IXA012|MTW|Magic twist
8799|IXA012|MULT|Multiple (division i and ii)
8799|IXA012|MYKA|Myka
8799|IXA012|N+B|N+b
8799|IXA012|NARROW|Narrows
8799|IXA012|NASCAR|Nascar
8799|IXA012|NATTCH|Natural touch
8799|IXA012|NATTNT|Natural tint
8799|IXA012|NAUTIC|Nautica
8799|IXA012|NCAA|Ncaa
8799|IXA012|NEOSFT|Neosoft
8799|IXA012|NFL|Nfl eyes
8799|IXA012|NFL1|Nfl
8799|IXA012|NICKEL|Nickelodeon
8799|IXA012|NICOLE|Nicole miller
8799|IXA012|NIKE|Nike maxsight
8799|IXA012|NINA|Nina ricci
8799|IXA012|NINEW|Nine west
8799|IXA012|NINTEN|Nintendo
8799|IXA012|NOUVEA|Nouveau
8799|IXA012|OAKLEY|Oakley
8799|IXA012|OLEG|Oleg cassini
8799|IXA012|OLIVIA|Olivia michaels
8799|IXA012|ONEILL|Oneill
8799|IXA012|ONO|Ono
8799|IXA012|OOSCAR|O by oscar de la renta
8799|IXA012|OPFLEX|Outpost flex
8799|IXA012|OPTIMA|Optima
8799|IXA012|ORIPEN|Original penguin
8799|IXA012|OSCAR|Oscar
8799|IXA012|OUTPST|Outpost
8799|IXA012|PANAMA|Panama jack
8799|IXA012|PARADE|Parade
8799|IXA012|PARAGN|Paragon
8799|IXA012|PARAPM|Paraperm
8799|IXA012|PARKMA|Parkman
8799|IXA012|PAWCLA|Paws n claws
8799|IXA012|PD|Paula deen
8799|IXA012|PEACE|Peace love daisy
8799|IXA012|PEACHT|Peachtree
8799|IXA012|PEPE|Pepe jeans
8799|IXA012|PEPEJK|Pepe jeans kids
8799|IXA012|PEPSI|Pepsi
8799|IXA012|PERMFL|Permaflex
8799|IXA012|PERMLN|Permalens
8799|IXA012|PERRY|Perry ellis
8799|IXA012|PGA|Pga golf
8799|IXA012|PHATFR|Phat farm
8799|IXA012|PHILLI|3.1 phillip lim
8799|IXA012|PHOEBE|Phoebe couture
8799|IXA012|PICKLE|Picklez
8799|IXA012|PIVOT|Pivotal
8799|IXA012|PLATIN|Platinum eyewear
8799|IXA012|PMMA|Dwg pmma
8799|IXA012|POLAR|Polaroid
8799|IXA012|POLO|Polo
8799|IXA012|POLOPR|Polo prep
8799|IXA012|POLYCN|Polycon
8799|IXA012|PRADA|Prada
8799|IXA012|PRECSN|Precision
8799|IXA012|PREFNC|Preference
8799|IXA012|PRKSUN|Parkman sunglasses
8799|IXA012|PROCLR|Proclear
8799|IXA012|PROJEC|Project runway
8799|IXA012|PROOF|Proof
8799|IXA012|PRUBIO|Paulina rubio
8799|IXA012|PUMA|Puma
8799|IXA012|PUREVS|Purevision
8799|IXA012|RADLEY|Radley
8799|IXA012|RAEN|Raen
8799|IXA012|RALPH|Ralph
8799|IXA012|RALPHL|Ralph lauren
8799|IXA012|RALPH2|Ralph by ralph lauren
8799|IXA012|RAMP|Rampage
8799|IXA012|RANDY|Randy jackson
8799|IXA012|RAYBAN|Ray-ban
8799|IXA012|RB YT|Ray-ban youth
8799|IXA012|RBJUN|Ray-ban junior
8799|IXA012|RBSUNY|Rb youth sun
8799|IXA012|RC|Roberto cavalli
8799|IXA012|RDA|Rue des arts
8799|IXA012|REACTI|Reaction by kc
8799|IXA012|REAL|Reality
8799|IXA012|REALTR|Realtree
8799|IXA012|RECSPE|Rec specs
8799|IXA012|REDLOT|Red lotus
8799|IXA012|REDTIG|Red tiger
8799|IXA012|RETRO|Retro
8799|IXA012|REVLON|Revlon
8799|IXA012|REVO|Revo
8799|IXA012|RICKEY|Rickey smiley
8799|IXA012|RIDERS|Riders
8799|IXA012|ROBERT|Robert latour
8799|IXA012|ROCKET|Rocket hot
8799|IXA012|SAFETY|Safety
8799|IXA012|SAV|Savvy
8799|IXA012|SEAN|Sean john
8799|IXA012|SEEQNC|Seequence
8799|IXA012|SERAFI|Serafina
8799|IXA012|SEREND|Serendipity
8799|IXA012|SERENG|Serengeti
8799|IXA012|SEVEN|Do not use
8799|IXA012|SEVENT|Seventeen
8799|IXA012|SFTCOL|Softcolors
8799|IXA012|SFTCON|Soft con
8799|IXA012|SFTLEN|Soft lens
8799|IXA012|SGP|Sgp
8799|IXA012|SHAQ|Shaq
8799|IXA012|SHOW|Show off
8799|IXA012|SHWOOD|Shwood
8799|IXA012|SIERRA|Sierra
8799|IXA012|SILSOF|Silsoft
8799|IXA012|SILVER|Silver 07
8799|IXA012|SIRIAN|Christian siriano
8799|IXA012|SKECH|Skechers
8799|IXA012|SMILE|Smilen
8799|IXA012|SMITH|Smith optics
8799|IXA012|SOFLNS|Soflens
8799|IXA012|SOFMAT|Softmate
8799|IXA012|SOFMED|Sofmed
8799|IXA012|SOFPER|Softperm dw
8799|IXA012|SOPHIA|Sophia loren
8799|IXA012|SPADA|Spada
8799|IXA012|SPD|Staffan preutz design
8799|IXA012|SPECT|Spectrum
8799|IXA012|SPERRY|Sperry top-sider
8799|IXA012|SPGBOB|Sponge bob
8799|IXA012|SPL|Spl
8799|IXA012|SPORTV|Sportviz
8799|IXA012|SPY|Spy optic
8799|IXA012|SPYCRS|Spy crosstown collection
8799|IXA012|SQROOT|Square root
8799|IXA012|SSTOR|Ss toric
8799|IXA012|STDCLR|Standard clear
8799|IXA012|STDCOL|Standard color
8799|IXA012|STDVIS|Standard visitint
8799|IXA012|STETSO|Stetson
8799|IXA012|STEVEM|Steve madden
8799|IXA012|STYLER|Steven tyler
8799|IXA012|ST180|Stetson 180
8799|IXA012|SUCCES|Success
8799|IXA012|SUNCOL|Sun collection
8799|IXA012|SUNDA|Sunday somewhere
8799|IXA012|SUNECL|Sun eclipse
8799|IXA012|SUNSFS|Sunflex and sunsoft
8799|IXA012|SUPRDR|Superdry
8799|IXA012|SUREVU|Surevue
8799|IXA012|SURFAC|Surface
8799|IXA012|SV|Sofia vergara
8799|IXA012|SWAROV|Swarovski
8799|IXA012|TANGNT|Tangent
8799|IXA012|TAPOUT|Tap out
8799|IXA012|TATTLE|Tattle
8799|IXA012|TCCHAR|Tc charton
8799|IXA012|TCFIT|Tc-fit
8799|IXA012|TE|The edge
8799|IXA012|TEDB|Ted baker
8799|IXA012|THALGR|Thalia girls
8799|IXA012|THALIA|Thalia
8799|IXA012|THEORY|Theory
8799|IXA012|TIFF|Tiffany
8799|IXA012|TIFLEX|Ti-flex/flex -on
8799|IXA012|TIMBER|Timberland
8799|IXA012|TIMEX|Timex max
8799|IXA012|TIMEXW|Timex womens
8799|IXA012|TMNT|Teenage mutant ninja turtles
8799|IXA012|TOM|Tom ford
8799|IXA012|TOMMY|Tommy hilfiger
8799|IXA012|TONYHA|Tony hawk kids
8799|IXA012|TONYM|Tony morgan
8799|IXA012|TORSFT|Torisoft
8799|IXA012|TORY|Tory burch
8799|IXA012|TRNSAR|Trans-aire
8799|IXA012|TS|Trendspotter
8799|IXA012|TUMI|Tumi
8799|IXA012|TZONE|T'zone sport goggle
8799|IXA012|ULTFLX|Ultraflex
8799|IXA012|ULTRAT|Ultra t
8799|IXA012|UMBRO|Umbro
8799|IXA012|URBAN|Urban
8799|IXA012|URBEDG|Urban edge
8799|IXA012|USA|Us army
8799|IXA012|USPA|Uspa
8799|IXA012|UTECH|Ultra tech
8799|IXA012|VALENT|Valentino
8799|IXA012|VAN|Vanni
8799|IXA012|VANISH|Vanish
8799|IXA012|VANTG|Vantage
8799|IXA012|VELENC|Velenciaga
8799|IXA012|VELVET|Velvet eyewear
8799|IXA012|VERAB|Vera bradley
8799|IXA012|VERAWA|Vera wang
8799|IXA012|VERSAC|Versace
8799|IXA012|VERSAI|Versailles palace
8799|IXA012|VERTEX|Vertex
8799|IXA012|VIA|Via roma
8799|IXA012|VIASPI|Via spiga
8799|IXA012|VICROL|Vicrola
8799|IXA012|VISNS|Visions
8799|IXA012|VISUS|Visus 2
8799|IXA012|VIVA|Viva
8799|IXA012|VOGUE|Vogue
8799|IXA012|VOLT|Volt
8799|IXA012|VONZIP|Von zipper
8799|IXA012|VSTAVU|Vistavue
8799|IXA012|WILD|Wild eyes
8799|IXA012|WILDC|Wild child
8799|IXA012|WILDFX|Wildfox
8799|IXA012|WILLRA|William rast
8799|IXA012|WOMENS|Women's collection
8799|IXA012|WRANGJ|Wrangler jean co.
8799|IXA012|WRANGL|Wrangler
8799|IXA012|XOXO|Xoxo
8799|IXA012|XPOSUR|Xposure
8799|IXA012|YOUTH|Youth collection
8799|IXA012|YSL|Yves st laurent
8799|IXA012|ZACP|Zac posen
8799|IXA012|ZERO2|Zero 2 sixty
8799|IXA012|ZOOBUG|Zoobug
8799|IXA012|ZOOM|Zoom (kids sport)
8799|IXA012|Z4Z6|Z products
8799|IXA012|180|180 in motion
8799|IXA012|4VUE|4 vue
8799|IXA012|7 MEN|7 fam mens
8799|IXA012|7 WMNS|7 fam womens
8799|IXA012|8TO80|Eight to eighty eyewear
